{
  "count": 82, 
  "next": "http://swapi.dev/api/people/?page=2", 
  "previous": null, 
  "results": [
      {
          "name": "R2-D2", 
          "height": "96", 
          "mass": "32", 
          "hair_color": "n/a", 
          "skin_color": "white, blue", 
          "eye_color": "red", 
          "birth_year": "33BBY", 
          "gender": "n/a", 
          "homeworld": "http://swapi.dev/api/planets/8/"
      },  
      {
          "name": "Leia Organa", 
          "height": "150", 
          "mass": "49", 
          "hair_color": "brown", 
          "skin_color": "light", 
          "eye_color": "brown", 
          "birth_year": "19BBY", 
          "gender": "female", 
          "homeworld": "http://swapi.dev/api/planets/2/"
      }
  ]
}